<?xml version="1.0" encoding="UTF-8" standalone="no"?>
<!-- Created with Inkscape (http://www.inkscape.org/) -->

<svg
   xmlns:dc="http://purl.org/dc/elements/1.1/"
   xmlns:cc="http://creativecommons.org/ns#"
   xmlns:rdf="http://www.w3.org/1999/02/22-rdf-syntax-ns#"
   xmlns:svg="http://www.w3.org/2000/svg"
   xmlns="http://www.w3.org/2000/svg"
   xmlns:sodipodi="http://sodipodi.sourceforge.net/DTD/sodipodi-0.dtd"
   xmlns:inkscape="http://www.inkscape.org/namespaces/inkscape"
   width="100"
   height="100"
   viewBox="0 0 26.458334 26.458334"
   version="1.1"
   id="svg130"
   inkscape:version="0.92.1 r15371"
   sodipodi:docname="bus_icon.svg">
  <defs
     id="defs124" />
  <sodipodi:namedview
     id="base"
     pagecolor="#ffffff"
     bordercolor="#666666"
     borderopacity="1.0"
     inkscape:pageopacity="0.0"
     inkscape:pageshadow="2"
     inkscape:zoom="7.9195959"
     inkscape:cx="32.280501"
     inkscape:cy="50.271607"
     inkscape:document-units="px"
     inkscape:current-layer="g4767"
     showgrid="false"
     units="px"
     inkscape:showpageshadow="false"
     showborder="true"
     showguides="true"
     inkscape:guide-bbox="true"
     inkscape:lockguides="false"
     inkscape:window-width="2560"
     inkscape:window-height="1361"
     inkscape:window-x="-9"
     inkscape:window-y="-9"
     inkscape:window-maximized="1">
    <sodipodi:guide
       position="13.229167,52.652098"
       orientation="1,0"
       id="guide4769"
       inkscape:locked="false"
       inkscape:label=""
       inkscape:color="rgb(0,0,255)" />
  </sodipodi:namedview>
  <metadata
     id="metadata127">
    <rdf:RDF>
      <cc:Work
         rdf:about="">
        <dc:format>image/svg+xml</dc:format>
        <dc:type
           rdf:resource="http://purl.org/dc/dcmitype/StillImage" />
        <dc:title></dc:title>
      </cc:Work>
    </rdf:RDF>
  </metadata>
  <g
     inkscape:label="Layer 1"
     inkscape:groupmode="layer"
     id="layer1"
     transform="translate(0,-270.54166)">
    <g
       id="g4767"
       transform="matrix(0.43894709,0,0,0.43894709,2.0782335,165.44515)">
      <g
         id="g4796">
        <path
           style="fill:none;stroke:#1baf5d;stroke-width:3.00713873;stroke-linecap:round;stroke-linejoin:miter;stroke-miterlimit:4;stroke-dasharray:none;stroke-opacity:1"
           d="M 36.861877,252.03988 H 13.766911"
           id="path176"
           inkscape:connector-curvature="0"
           sodipodi:nodetypes="cc" />
        <rect
           style="fill:none;stroke:#1baf5d;stroke-width:1.52870572;stroke-linecap:round;stroke-linejoin:round;stroke-miterlimit:4;stroke-dasharray:none;stroke-opacity:1;paint-order:normal"
           id="rect4675"
           width="34.540749"
           height="13.616924"
           x="8.0330219"
           y="256.74649"
           ry="1.8249943" />
        <circle
           style="fill:#1baf5d;fill-opacity:1;stroke:#1baf5d;stroke-width:1.33942115;stroke-linecap:round;stroke-linejoin:round;stroke-miterlimit:4;stroke-dasharray:none;stroke-opacity:1;paint-order:normal"
           id="path4681"
           cx="-14.743445"
           cy="276.53888"
           transform="scale(-1,1)"
           r="2.1097543" />
        <circle
           style="fill:#1baf5d;fill-opacity:1;stroke:#1baf5d;stroke-width:1.33942115;stroke-linecap:round;stroke-linejoin:round;stroke-miterlimit:4;stroke-dasharray:none;stroke-opacity:1;paint-order:normal"
           id="path4681-2"
           cx="-35.867378"
           cy="276.33005"
           transform="scale(-1,1)"
           r="2.1097543" />
        <rect
           style="fill:none;fill-opacity:1;stroke:#1baf5d;stroke-width:3.94684029;stroke-linecap:round;stroke-linejoin:round;stroke-miterlimit:4;stroke-dasharray:none;stroke-opacity:1;paint-order:normal"
           id="rect4722"
           width="9.3551474"
           height="6.4523177"
           x="7.6118703"
           y="286.08835"
           ry="1.1932712"
           rx="0" />
        <path
           style="fill:none;fill-opacity:1;stroke:#1baf5d;stroke-width:3.94684029;stroke-linecap:round;stroke-linejoin:round;stroke-miterlimit:4;stroke-dasharray:none;stroke-opacity:1;paint-order:normal"
           d="M 47.527429,286.08833 H 16.967017 3.2665142 v -26.79992 c 0,-7.59028 6.1107129,-13.65621 13.7008568,-13.70087 l 16.872903,-0.0993 c 7.590143,-0.0446 13.700857,6.11059 13.700857,13.70086 v 17.6157 z"
           id="rect4727"
           inkscape:connector-curvature="0"
           sodipodi:nodetypes="cccsssscc" />
        <rect
           style="fill:none;fill-opacity:1;stroke:#1baf5d;stroke-width:3.94684029;stroke-linecap:round;stroke-linejoin:round;stroke-miterlimit:4;stroke-dasharray:none;stroke-opacity:1;paint-order:normal"
           id="rect4722-5"
           width="9.3551474"
           height="6.4523177"
           x="33.681396"
           y="286.08835"
           ry="1.1932712"
           rx="0" />
      </g>
    </g>
  </g>
</svg>
